Alluviam plot by ggalluvial-example 2 | Pylone's R documents site
…
2020/02/01

Let’s begin with a simple question:what is alluviam? Maybe you could find the answer in Creating Alluvial Diagrams and Alluvial Plots in ggplot2. Here you go, start your practice right now!

And then the further question appears: when should I use it in my paper? From my limited experience, it would be a perfect solution if you want to illustrator your data by a flow-dynamic picture. Simplly, you could see it as a ribbon-connected stacked bar plots which located in parallel along a axis of variable.

1.Read data

The point of ploting Alluviam lies in rebuilding your data structure, that is, you need to calculate the frequency of each variable by ID(sample) before you plot it.

library(readxl)
Module_fungi1<-read_excel("Module.liudong.xlsx", sheet = "Sheet5")
Module_fungi1

## # A tibble: 132 x 5
##    Trt   Module Microbe          Freq    ID
##    <chr>  <dbl> <chr>           <dbl> <dbl>
##  1 BS         0 Others              3     1
##  2 BS         0 Pezizomycetes       7     2
##  3 BS         0 Sordariomycetes    15     3
##  4 BS         1 Others              4     4
##  5 BS         1 Pezizomycetes       1     5
##  6 BS         1 Sordariomycetes    16     6
##  7 BS         2 Others              8     7
##  8 BS         2 Pezizomycetes       1     8
##  9 BS         2 Sordariomycetes     8     9
## 10 BS         3 Others              3    10
## # … with 122 more rows
…
