Learning R | Pylone's R documents site
…
选取变量mpg和cyl

cardata_select<-cardata%>%select(mpg,cyl)
cardata_select

## # A tibble: 32 x 2
##      mpg   cyl
##    <dbl> <dbl>
##  1  21       6
##  2  21       6
##  3  22.8     4
##  4  21.4     6
##  5  18.7     8
##  6  18.1     6
##  7  14.3     8
##  8  24.4     4
##  9  22.8     4
## 10  19.2     6
## # … with 22 more rows
…
